{
  "annotations": {
    "list": [
      {
        "builtIn": 1,
        "datasource": "-- Grafana --",
        "enable": true,
        "hide": true,
        "iconColor": "rgba(0, 211, 255, 1)",
        "name": "Annotations & Alerts",
        "type": "dashboard"
      }
    ]
  },
  "description": "Nomad built-in telemetry https://github.com/dereknex/nomad-grafana",
  "editable": true,
  "gnetId": 6278,
  "graphTooltip": 1,
  "iteration": 1624930920301,
  "links": [],
  "panels": [
    {
      "datasource": null,
      "fieldConfig": {
        "defaults": {},
        "overrides": []
      },
      "gridPos": {
        "h": 1,
        "w": 24,
        "x": 0,
        "y": 0
      },
      "id": 24,
      "title": "Allocations",
      "type": "row"
    },
    {
      "cacheTimeout": null,
      "datasource": "${DS_PROMETHEUS}",
      "fieldConfig": {
        "defaults": {
          "color": {
            "mode": "thresholds"
          },
          "mappings": [
            {
              "options": {
                "match": "null",
                "result": {
                  "text": "N/A"
                }
              },
              "type": "special"
            }
          ],
          "max": 1,
          "min": 0,
          "thresholds": {
            "mode": "absolute",
            "steps": [
              {
                "color": "green",
                "value": null
              },
              {
                "color": "red",
                "value": 80
              }
            ]
          },
          "unit": "percentunit"
        },
        "overrides": []
      },
      "gridPos": {
        "h": 5,
        "w": 5,
        "x": 0,
        "y": 1
      },
      "id": 33,
      "interval": null,
      "links": [],
      "maxDataPoints": 100,
      "options": {
        "orientation": "horizontal",
        "reduceOptions": {
          "calcs": [
            "lastNotNull"
          ],
          "fields": "",
          "values": false
        },
        "showThresholdLabels": false,
        "showThresholdMarkers": true,
        "text": {}
      },
      "pluginVersion": "8.0.3",
      "repeat": "host",
      "repeatDirection": "v",
      "targets": [
        {
          "expr": "nomad_client_unallocated_cpu{datacenter=~\"$datacenter\", host=~\"$host\"}/(nomad_client_unallocated_cpu{datacenter=~\"$datacenter\", host=~\"$host\"}+nomad_client_allocated_cpu{datacenter=~\"$datacenter\", host=~\"$host\"})",
          "format": "time_series",
          "intervalFactor": 1,
          "refId": "A"
        }
      ],
      "title": "CPU",
      "type": "gauge"
    },
    {
      "cacheTimeout": null,
      "datasource": "${DS_PROMETHEUS}",
      "fieldConfig": {
        "defaults": {
          "color": {
            "mode": "thresholds"
          },
          "mappings": [
            {
              "options": {
                "match": "null",
                "result": {
                  "text": "N/A"
                }
              },
              "type": "special"
            }
          ],
          "max": 1,
          "min": 0,
          "thresholds": {
            "mode": "absolute",
            "steps": [
              {
                "color": "green",
                "value": null
              },
              {
                "color": "red",
                "value": 80
              }
            ]
          },
          "unit": "percentunit"
        },
        "overrides": []
      },
      "gridPos": {
        "h": 5,
        "w": 5,
        "x": 5,
        "y": 1
      },
      "id": 40,
      "interval": null,
      "links": [],
      "maxDataPoints": 100,
      "options": {
        "orientation": "horizontal",
        "reduceOptions": {
          "calcs": [
            "lastNotNull"
          ],
          "fields": "",
          "values": false
        },
        "showThresholdLabels": false,
        "showThresholdMarkers": true,
        "text": {}
      },
      "pluginVersion": "8.0.3",
      "repeat": "host",
      "repeatDirection": "v",
      "targets": [
        {
          "expr": "nomad_client_unallocated_memory{datacenter=~\"$datacenter\", host=~\"$host\"}/(nomad_client_unallocated_memory{datacenter=~\"$datacenter\", host=~\"$host\"}+nomad_client_allocated_memory{datacenter=~\"$datacenter\", host=~\"$host\"})",
          "format": "time_series",
          "intervalFactor": 1,
          "refId": "A"
        }
      ],
      "title": "Memory",
      "type": "gauge"
    },
    {
      "cacheTimeout": null,
      "datasource": "${DS_PROMETHEUS}",
      "fieldConfig": {
        "defaults": {
          "color": {
            "mode": "thresholds"
          },
          "decimals": 2,
          "mappings": [
            {
              "options": {
                "match": "null",
                "result": {
                  "text": "N/A"
                }
              },
              "type": "special"
            }
          ],
          "max": 1,
          "min": 0,
          "thresholds": {
            "mode": "absolute",
            "steps": [
              {
                "color": "green",
                "value": null
              },
              {
                "color": "red",
                "value": 80
              }
            ]
          },
          "unit": "percentunit"
        },
        "overrides": []
      },
      "gridPos": {
        "h": 5,
        "w": 5,
        "x": 10,
        "y": 1
      },
      "id": 48,
      "interval": null,
      "links": [],
      "maxDataPoints": 100,
      "options": {
        "orientation": "horizontal",
        "reduceOptions": {
          "calcs": [
            "lastNotNull"
          ],
          "fields": "",
          "values": false
        },
        "showThresholdLabels": false,
        "showThresholdMarkers": true,
        "text": {}
      },
      "pluginVersion": "8.0.3",
      "repeat": "host",
      "repeatDirection": "v",
      "targets": [
        {
          "expr": "nomad_client_unallocated_disk{datacenter=~\"$datacenter\", host=~\"$host\"}/(nomad_client_unallocated_disk{datacenter=~\"$datacenter\", host=~\"$host\"}+nomad_client_allocated_disk{datacenter=~\"$datacenter\", host=~\"$host\"})",
          "format": "time_series",
          "intervalFactor": 1,
          "refId": "A"
        }
      ],
      "title": "Disk",
      "type": "gauge"
    },
    {
      "backgroundColor": "rgba(128,128,128,0.1)",
      "colorMaps": [
        {
          "color": "#CCC",
          "text": "N/A"
        }
      ],
      "crosshairColor": "#8F070C",
      "datasource": "${DS_PROMETHEUS}",
      "display": "timeline",
      "expandFromQueryS": 0,
      "extendLastValue": true,
      "gridPos": {
        "h": 6,
        "w": 9,
        "x": 15,
        "y": 1
      },
      "highlightOnMouseover": false,
      "id": 58,
      "legendSortBy": "-ms",
      "lineColor": "rgba(0,0,0,0.1)",
      "links": [],
      "metricNameColor": "#000000",
      "rangeMaps": [
        {
          "from": "null",
          "text": "N/A",
          "to": "null"
        }
      ],
      "repeat": "host",
      "repeatDirection": "v",
      "rowHeight": 24,
      "showDistinctCount": false,
      "showLegend": false,
      "showLegendNames": false,
      "showLegendPercent": true,
      "showLegendValues": false,
      "showTimeAxis": true,
      "showTransitionCount": false,
      "targets": [
        {
          "expr": "nomad_client_allocations_migrating{datacenter=~\"$datacenter\", host=~\"$host\"}",
          "format": "time_series",
          "intervalFactor": 1,
          "legendFormat": "Migrating",
          "refId": "A"
        },
        {
          "expr": "nomad_client_allocations_blocked{datacenter=~\"$datacenter\", host=~\"$host\"}",
          "format": "time_series",
          "intervalFactor": 1,
          "legendFormat": "Blocked",
          "refId": "B"
        },
        {
          "expr": "nomad_client_allocations_pending{datacenter=~\"$datacenter\", host=~\"$host\"}",
          "format": "time_series",
          "intervalFactor": 1,
          "legendFormat": "Pending",
          "refId": "C"
        },
        {
          "expr": "nomad_client_allocations_running{datacenter=~\"$datacenter\", host=~\"$host\"}",
          "format": "time_series",
          "intervalFactor": 1,
          "legendFormat": "Running",
          "refId": "D"
        },
        {
          "expr": "nomad_client_allocations_terminal{datacenter=~\"$datacenter\", host=~\"$host\"}",
          "format": "time_series",
          "intervalFactor": 1,
          "legendFormat": "Terminal",
          "refId": "E"
        }
      ],
      "textSize": 14,
      "textSizeTime": 12,
      "timeOptions": [
        {
          "name": "Years",
          "value": "years"
        },
        {
          "name": "Months",
          "value": "months"
        },
        {
          "name": "Weeks",
          "value": "weeks"
        },
        {
          "name": "Days",
          "value": "days"
        },
        {
          "name": "Hours",
          "value": "hours"
        },
        {
          "name": "Minutes",
          "value": "minutes"
        },
        {
          "name": "Seconds",
          "value": "seconds"
        },
        {
          "name": "Milliseconds",
          "value": "milliseconds"
        }
      ],
      "timePrecision": {
        "name": "Minutes",
        "value": "minutes"
      },
      "timeTextColor": "#d8d9da",
      "title": "Summary",
      "type": "natel-discrete-panel",
      "units": "short",
      "use12HourClock": false,
      "useTimePrecision": false,
      "valueMaps": [
        {
          "op": "=",
          "text": "N/A",
          "value": "null"
        }
      ],
      "valueTextColor": "#000000",
      "writeAllValues": false,
      "writeLastValue": true,
      "writeMetricNames": true
    },
    {
      "datasource": null,
      "fieldConfig": {
        "defaults": {},
        "overrides": []
      },
      "gridPos": {
        "h": 1,
        "w": 24,
        "x": 0,
        "y": 7
      },
      "id": 2,
      "title": "Host Status",
      "type": "row"
    },
    {
      "cacheTimeout": null,
      "datasource": "${DS_PROMETHEUS}",
      "fieldConfig": {
        "defaults": {
          "color": {
            "mode": "thresholds"
          },
          "decimals": 1,
          "mappings": [
            {
              "options": {
                "match": "null",
                "result": {
                  "text": "N/A"
                }
              },
              "type": "special"
            }
          ],
          "thresholds": {
            "mode": "absolute",
            "steps": [
              {
                "color": "green",
                "value": null
              },
              {
                "color": "red",
                "value": 80
              }
            ]
          },
          "unit": "dtdurations"
        },
        "overrides": []
      },
      "gridPos": {
        "h": 5,
        "w": 4,
        "x": 0,
        "y": 8
      },
      "id": 4,
      "interval": null,
      "links": [],
      "maxDataPoints": 100,
      "options": {
        "colorMode": "none",
        "graphMode": "none",
        "justifyMode": "auto",
        "orientation": "horizontal",
        "reduceOptions": {
          "calcs": [
            "lastNotNull"
          ],
          "fields": "",
          "values": false
        },
        "text": {},
        "textMode": "auto"
      },
      "pluginVersion": "8.0.3",
      "repeat": "host",
      "repeatDirection": "v",
      "targets": [
        {
          "expr": "nomad_client_uptime{datacenter=~\"$datacenter\", host=~\"$host\"}",
          "format": "time_series",
          "intervalFactor": 1,
          "refId": "A"
        }
      ],
      "title": "Uptime($host)",
      "type": "stat"
    },
    {
      "cacheTimeout": null,
      "datasource": "${DS_PROMETHEUS}",
      "fieldConfig": {
        "defaults": {
          "color": {
            "mode": "thresholds"
          },
          "mappings": [
            {
              "options": {
                "match": "null",
                "result": {
                  "text": "N/A"
                }
              },
              "type": "special"
            }
          ],
          "max": 100,
          "min": 0,
          "thresholds": {
            "mode": "absolute",
            "steps": [
              {
                "color": "#cca300",
                "value": null
              },
              {
                "color": "#508642",
                "value": 20
              },
              {
                "color": "#508642",
                "value": 80
              }
            ]
          },
          "unit": "percent"
        },
        "overrides": []
      },
      "gridPos": {
        "h": 5,
        "w": 5,
        "x": 4,
        "y": 8
      },
      "id": 7,
      "interval": null,
      "links": [],
      "maxDataPoints": 100,
      "options": {
        "orientation": "horizontal",
        "reduceOptions": {
          "calcs": [
            "lastNotNull"
          ],
          "fields": "",
          "values": false
        },
        "showThresholdLabels": false,
        "showThresholdMarkers": true,
        "text": {}
      },
      "pluginVersion": "8.0.3",
      "repeat": "host",
      "repeatDirection": "v",
      "targets": [
        {
          "expr": "nomad_client_host_cpu_idle{datacenter=\"$datacenter\", host=\"$host\"}",
          "format": "time_series",
          "intervalFactor": 1,
          "refId": "A"
        }
      ],
      "title": "CPU Idle($host)",
      "type": "gauge"
    },
    {
      "aliasColors": {},
      "bars": false,
      "dashLength": 10,
      "dashes": false,
      "datasource": "${DS_PROMETHEUS}",
      "fill": 1,
      "fillGradient": 0,
      "gridPos": {
        "h": 5,
        "w": 5,
        "x": 9,
        "y": 8
      },
      "hiddenSeries": false,
      "id": 11,
      "legend": {
        "avg": false,
        "current": false,
        "max": false,
        "min": false,
        "show": true,
        "total": false,
        "values": false
      },
      "lines": true,
      "linewidth": 1,
      "links": [],
      "nullPointMode": "null",
      "options": {
        "alertThreshold": true
      },
      "percentage": false,
      "pluginVersion": "8.0.3",
      "pointradius": 5,
      "points": false,
      "renderer": "flot",
      "repeat": "host",
      "repeatDirection": "v",
      "seriesOverrides": [],
      "spaceLength": 10,
      "stack": false,
      "steppedLine": false,
      "targets": [
        {
          "expr": "nomad_client_host_memory_total{datacenter=~\"$datacenter\", host=~\"$host\"}",
          "format": "time_series",
          "intervalFactor": 1,
          "legendFormat": "Total",
          "refId": "B"
        },
        {
          "expr": "nomad_client_host_memory_free{datacenter=~\"$datacenter\", host=~\"$host\"}",
          "format": "time_series",
          "instant": false,
          "intervalFactor": 1,
          "legendFormat": "Free",
          "refId": "A"
        },
        {
          "expr": "nomad_client_host_memory_used{datacenter=~\"$datacenter\", host=~\"$host\"}",
          "format": "time_series",
          "intervalFactor": 1,
          "legendFormat": "Used",
          "refId": "C"
        },
        {
          "expr": "nomad_client_host_memory_available{datacenter=~\"$datacenter\", host=~\"$host\"}",
          "format": "time_series",
          "intervalFactor": 1,
          "legendFormat": "Available",
          "refId": "D"
        }
      ],
      "thresholds": [],
      "timeFrom": null,
      "timeRegions": [],
      "timeShift": null,
      "title": "Memory ($host)",
      "tooltip": {
        "shared": true,
        "sort": 0,
        "value_type": "individual"
      },
      "type": "graph",
      "xaxis": {
        "buckets": null,
        "mode": "time",
        "name": null,
        "show": true,
        "values": []
      },
      "yaxes": [
        {
          "format": "decbytes",
          "label": null,
          "logBase": 1,
          "max": null,
          "min": null,
          "show": true
        },
        {
          "format": "short",
          "label": null,
          "logBase": 1,
          "max": null,
          "min": null,
          "show": true
        }
      ],
      "yaxis": {
        "align": false,
        "alignLevel": null
      }
    },
    {
      "aliasColors": {},
      "bars": false,
      "dashLength": 10,
      "dashes": false,
      "datasource": "${DS_PROMETHEUS}",
      "fill": 1,
      "fillGradient": 0,
      "gridPos": {
        "h": 5,
        "w": 5,
        "x": 14,
        "y": 8
      },
      "hiddenSeries": false,
      "id": 13,
      "legend": {
        "avg": false,
        "current": false,
        "max": false,
        "min": false,
        "show": true,
        "total": false,
        "values": false
      },
      "lines": true,
      "linewidth": 1,
      "links": [],
      "nullPointMode": "null",
      "options": {
        "alertThreshold": true
      },
      "percentage": false,
      "pluginVersion": "8.0.3",
      "pointradius": 5,
      "points": false,
      "renderer": "flot",
      "repeat": "host",
      "repeatDirection": "v",
      "seriesOverrides": [],
      "spaceLength": 10,
      "stack": false,
      "steppedLine": false,
      "targets": [
        {
          "expr": "max(nomad_client_host_disk_size{datacenter=~\"$datacenter\", host=~\"$host\"}) by (disk)",
          "format": "time_series",
          "intervalFactor": 1,
          "legendFormat": "Total - {{disk}}",
          "refId": "B"
        },
        {
          "expr": "avg(nomad_client_host_disk_available{datacenter=~\"$datacenter\", host=~\"$host\"}) by (disk)",
          "format": "time_series",
          "intervalFactor": 1,
          "legendFormat": "Available - {{disk}}",
          "refId": "A"
        }
      ],
      "thresholds": [],
      "timeFrom": null,
      "timeRegions": [],
      "timeShift": null,
      "title": "Disk Usage ($host)",
      "tooltip": {
        "shared": true,
        "sort": 0,
        "value_type": "individual"
      },
      "type": "graph",
      "xaxis": {
        "buckets": null,
        "mode": "time",
        "name": null,
        "show": true,
        "values": []
      },
      "yaxes": [
        {
          "decimals": 0,
          "format": "decbytes",
          "label": null,
          "logBase": 1,
          "max": null,
          "min": null,
          "show": true
        },
        {
          "format": "decbytes",
          "label": null,
          "logBase": 1,
          "max": null,
          "min": null,
          "show": false
        }
      ],
      "yaxis": {
        "align": false,
        "alignLevel": null
      }
    },
    {
      "aliasColors": {},
      "bars": false,
      "dashLength": 10,
      "dashes": false,
      "datasource": "${DS_PROMETHEUS}",
      "fill": 1,
      "fillGradient": 0,
      "gridPos": {
        "h": 5,
        "w": 5,
        "x": 19,
        "y": 8
      },
      "hiddenSeries": false,
      "id": 15,
      "legend": {
        "avg": false,
        "current": false,
        "max": false,
        "min": false,
        "show": true,
        "total": false,
        "values": false
      },
      "lines": true,
      "linewidth": 1,
      "links": [],
      "nullPointMode": "null",
      "options": {
        "alertThreshold": true
      },
      "percentage": false,
      "pluginVersion": "8.0.3",
      "pointradius": 5,
      "points": false,
      "renderer": "flot",
      "repeat": "host",
      "repeatDirection": "v",
      "seriesOverrides": [],
      "spaceLength": 10,
      "stack": false,
      "steppedLine": false,
      "targets": [
        {
          "expr": "avg(nomad_client_host_disk_inodes_percent{datacenter=~\"$datacenter\", host=~\"$host\"}) by (disk)",
          "format": "time_series",
          "intervalFactor": 1,
          "legendFormat": "{{disk}}",
          "refId": "A"
        }
      ],
      "thresholds": [],
      "timeFrom": null,
      "timeRegions": [],
      "timeShift": null,
      "title": "Disk Inodes ($host)",
      "tooltip": {
        "shared": true,
        "sort": 0,
        "value_type": "individual"
      },
      "type": "graph",
      "xaxis": {
        "buckets": null,
        "mode": "time",
        "name": null,
        "show": true,
        "values": []
      },
      "yaxes": [
        {
          "decimals": null,
          "format": "percent",
          "label": null,
          "logBase": 1,
          "max": null,
          "min": null,
          "show": true
        },
        {
          "format": "short",
          "label": null,
          "logBase": 1,
          "max": null,
          "min": null,
          "show": true
        }
      ],
      "yaxis": {
        "align": false,
        "alignLevel": null
      }
    }
  ],
  "refresh": "10s",
  "schemaVersion": 30,
  "style": "dark",
  "tags": [
    "nomad",
    "host",
    "cluster"
  ],
  "templating": {
    "list": [
      {
        "allValue": null,
        "current": {
          "selected": false,
          "text": "NAYA-TRONIX-DC-1",
          "value": "NAYA-TRONIX-DC-1"
        },
        "datasource": "${DS_PROMETHEUS}",
        "definition": "",
        "description": null,
        "error": null,
        "hide": 0,
        "includeAll": false,
        "label": "DC",
        "multi": false,
        "name": "datacenter",
        "options": [],
        "query": {
          "query": "label_values(nomad_client_uptime, datacenter)",
          "refId": "Prometheus-datacenter-Variable-Query"
        },
        "refresh": 1,
        "regex": "",
        "skipUrlSync": false,
        "sort": 0,
        "tagValuesQuery": "",
        "tagsQuery": "",
        "type": "query",
        "useTags": false
      },
      {
        "allValue": null,
        "current": {
          "selected": false,
          "text": "All",
          "value": "$__all"
        },
        "datasource": "${DS_PROMETHEUS}",
        "definition": "",
        "description": null,
        "error": null,
        "hide": 0,
        "includeAll": true,
        "label": "Host",
        "multi": true,
        "name": "host",
        "options": [],
        "query": {
          "query": "label_values(nomad_client_uptime{datacenter=~\"$datacenter\"}, host)",
          "refId": "Prometheus-host-Variable-Query"
        },
        "refresh": 1,
        "regex": "",
        "skipUrlSync": false,
        "sort": 0,
        "tagValuesQuery": "",
        "tagsQuery": "",
        "type": "query",
        "useTags": false
      },
      {
        "current": {
          "selected": false,
          "text": "Prometheus",
          "value": "Prometheus"
        },
        "description": null,
        "error": null,
        "hide": 0,
        "includeAll": false,
        "label": null,
        "multi": false,
        "name": "DS_PROMETHEUS",
        "options": [],
        "query": "prometheus",
        "refresh": 1,
        "regex": "",
        "skipUrlSync": false,
        "type": "datasource"
      }
    ]
  },
  "time": {
    "from": "now-15m",
    "to": "now"
  },
  "timepicker": {
    "refresh_intervals": [
      "5s",
      "10s",
      "30s",
      "1m",
      "5m",
      "15m",
      "30m",
      "1h",
      "2h",
      "1d"
    ],
    "time_options": [
      "5m",
      "15m",
      "1h",
      "6h",
      "12h",
      "24h",
      "2d",
      "7d",
      "30d"
    ]
  },
  "timezone": "",
  "title": "Nomad Cluster",
  "uid": "CiP3mZVik",
  "version": 200
}
