{
  "annotations": {
    "list": [
      {
        "builtIn": 1,
        "datasource": "-- Grafana --",
        "enable": true,
        "hide": true,
        "iconColor": "rgba(0, 211, 255, 1)",
        "name": "Annotations & Alerts",
        "type": "dashboard"
      }
    ]
  },
  "description": "VMware vSphere Dashboard - VMs (Grafana 7.5 / new Time-Series Panel)",
  "editable": true,
  "gnetId": 8168,
  "graphTooltip": 0,
  "id": 46,
  "iteration": 1625356657301,
  "links": [
    {
      "asDropdown": true,
      "icon": "external link",
      "includeVars": true,
      "keepTime": true,
      "tags": [
        "vSphere Telegraf"
      ],
      "targetBlank": true,
      "title": "More Dashboards",
      "type": "dashboards"
    }
  ],
  "panels": [
    {
      "collapsed": false,
      "datasource": "InfluxDB-k3s-telegraf",
      "fieldConfig": {
        "defaults": {},
        "overrides": []
      },
      "gridPos": {
        "h": 1,
        "w": 24,
        "x": 0,
        "y": 0
      },
      "id": 76,
      "panels": [],
      "repeat": "virtualmachine",
      "title": "$virtualmachine",
      "type": "row"
    },
    {
      "cacheTimeout": null,
      "datasource": "InfluxDB-k3s-telegraf",
      "fieldConfig": {
        "defaults": {
          "decimals": 1,
          "mappings": [
            {
              "options": {
                "match": "null",
                "result": {
                  "text": "N/A"
                }
              },
              "type": "special"
            }
          ],
          "thresholds": {
            "mode": "absolute",
            "steps": [
              {
                "color": "#d44a3a",
                "value": null
              },
              {
                "color": "rgba(237, 129, 40, 0.89)",
                "value": 0.001
              },
              {
                "color": "#1F60C4",
                "value": 0.002
              }
            ]
          },
          "unit": "s"
        },
        "overrides": [
          {
            "matcher": {
              "id": "byName",
              "options": "CPU Usage MHz"
            },
            "properties": [
              {
                "id": "unit",
                "value": "none"
              },
              {
                "id": "decimals",
                "value": 0
              }
            ]
          },
          {
            "matcher": {
              "id": "byName",
              "options": "CPU Usage %"
            },
            "properties": [
              {
                "id": "unit",
                "value": "percent"
              },
              {
                "id": "min",
                "value": 0
              },
              {
                "id": "max",
                "value": 100
              },
              {
                "id": "thresholds",
                "value": {
                  "mode": "absolute",
                  "steps": [
                    {
                      "color": "semi-dark-green",
                      "value": null
                    },
                    {
                      "color": "dark-orange",
                      "value": 70
                    },
                    {
                      "color": "dark-red",
                      "value": 90
                    }
                  ]
                }
              }
            ]
          },
          {
            "matcher": {
              "id": "byName",
              "options": "RAM Usage"
            },
            "properties": [
              {
                "id": "unit",
                "value": "deckbytes"
              },
              {
                "id": "decimals",
                "value": 0
              }
            ]
          },
          {
            "matcher": {
              "id": "byName",
              "options": "RAM Usage %"
            },
            "properties": [
              {
                "id": "unit",
                "value": "percent"
              },
              {
                "id": "thresholds",
                "value": {
                  "mode": "absolute",
                  "steps": [
                    {
                      "color": "semi-dark-green",
                      "value": null
                    },
                    {
                      "color": "dark-yellow",
                      "value": 70
                    },
                    {
                      "color": "dark-red",
                      "value": 90
                    }
                  ]
                }
              }
            ]
          }
        ]
      },
      "gridPos": {
        "h": 7,
        "w": 6,
        "x": 0,
        "y": 1
      },
      "id": 28,
      "interval": null,
      "links": [],
      "maxDataPoints": 100,
      "options": {
        "colorMode": "background",
        "fieldOptions": {
          "calcs": [
            "mean"
          ]
        },
        "graphMode": "none",
        "justifyMode": "auto",
        "orientation": "auto",
        "reduceOptions": {
          "calcs": [
            "lastNotNull"
          ],
          "fields": "",
          "values": false
        },
        "text": {},
        "textMode": "auto"
      },
      "pluginVersion": "8.0.3",
      "targets": [
        {
          "alias": "Uptime",
          "groupBy": [
            {
              "params": [
                "$inter"
              ],
              "type": "time"
            },
            {
              "params": [
                "null"
              ],
              "type": "fill"
            }
          ],
          "measurement": "vsphere_vm_sys",
          "orderByTime": "ASC",
          "policy": "default",
          "refId": "A",
          "resultFormat": "time_series",
          "select": [
            [
              {
                "params": [
                  "uptime_latest"
                ],
                "type": "field"
              },
              {
                "params": [],
                "type": "last"
              }
            ]
          ],
          "tags": [
            {
              "key": "vmname",
              "operator": "=~",
              "value": "/^$virtualmachine$/"
            }
          ]
        },
        {
          "alias": "CPU Usage MHz",
          "groupBy": [
            {
              "params": [
                "$inter"
              ],
              "type": "time"
            },
            {
              "params": [
                "null"
              ],
              "type": "fill"
            }
          ],
          "measurement": "vsphere_vm_cpu",
          "orderByTime": "ASC",
          "policy": "default",
          "refId": "B",
          "resultFormat": "time_series",
          "select": [
            [
              {
                "params": [
                  "usagemhz_average"
                ],
                "type": "field"
              },
              {
                "params": [],
                "type": "last"
              }
            ]
          ],
          "tags": [
            {
              "key": "vmname",
              "operator": "=~",
              "value": "/^$virtualmachine$/"
            }
          ]
        },
        {
          "alias": "RAM Usage",
          "groupBy": [
            {
              "params": [
                "$inter"
              ],
              "type": "time"
            },
            {
              "params": [
                "null"
              ],
              "type": "fill"
            }
          ],
          "measurement": "vsphere_vm_mem",
          "orderByTime": "ASC",
          "policy": "default",
          "refId": "C",
          "resultFormat": "time_series",
          "select": [
            [
              {
                "params": [
                  "active_average"
                ],
                "type": "field"
              },
              {
                "params": [],
                "type": "last"
              }
            ]
          ],
          "tags": [
            {
              "key": "vmname",
              "operator": "=~",
              "value": "/^$virtualmachine$/"
            }
          ]
        },
        {
          "alias": "CPU Usage %",
          "groupBy": [
            {
              "params": [
                "$inter"
              ],
              "type": "time"
            },
            {
              "params": [
                "null"
              ],
              "type": "fill"
            }
          ],
          "measurement": "vsphere_vm_cpu",
          "orderByTime": "ASC",
          "policy": "default",
          "refId": "E",
          "resultFormat": "time_series",
          "select": [
            [
              {
                "params": [
                  "usage_average"
                ],
                "type": "field"
              },
              {
                "params": [],
                "type": "last"
              }
            ]
          ],
          "tags": [
            {
              "key": "vmname",
              "operator": "=~",
              "value": "/^$virtualmachine$/"
            }
          ]
        },
        {
          "alias": "RAM Usage %",
          "groupBy": [
            {
              "params": [
                "$inter"
              ],
              "type": "time"
            },
            {
              "params": [
                "null"
              ],
              "type": "fill"
            }
          ],
          "measurement": "vsphere_vm_mem",
          "orderByTime": "ASC",
          "policy": "default",
          "refId": "D",
          "resultFormat": "time_series",
          "select": [
            [
              {
                "params": [
                  "usage_average"
                ],
                "type": "field"
              },
              {
                "params": [],
                "type": "last"
              }
            ]
          ],
          "tags": [
            {
              "key": "vmname",
              "operator": "=~",
              "value": "/^$virtualmachine$/"
            }
          ]
        }
      ],
      "title": "VM Quick Overview",
      "type": "stat"
    },
    {
      "datasource": "InfluxDB-k3s-telegraf",
      "description": "CPU usage as a percentage during the interval.",
      "fieldConfig": {
        "defaults": {
          "color": {
            "mode": "palette-classic"
          },
          "custom": {
            "axisLabel": "CPU Utilization %",
            "axisPlacement": "auto",
            "barAlignment": 0,
            "drawStyle": "line",
            "fillOpacity": 30,
            "gradientMode": "hue",
            "hideFrom": {
              "graph": false,
              "legend": false,
              "tooltip": false,
              "viz": false
            },
            "lineInterpolation": "smooth",
            "lineWidth": 2,
            "pointSize": 5,
            "scaleDistribution": {
              "type": "linear"
            },
            "showPoints": "never",
            "spanNulls": true,
            "stacking": {
              "group": "A",
              "mode": "none"
            },
            "thresholdsStyle": {
              "mode": "off"
            }
          },
          "mappings": [],
          "max": 100,
          "min": 0,
          "thresholds": {
            "mode": "absolute",
            "steps": [
              {
                "color": "green",
                "value": null
              }
            ]
          },
          "unit": "percent"
        },
        "overrides": [
          {
            "matcher": {
              "id": "byName",
              "options": "CPU Ready %"
            },
            "properties": [
              {
                "id": "custom.axisLabel",
                "value": "CPU Ready %"
              },
              {
                "id": "color",
                "value": {
                  "fixedColor": "semi-dark-orange",
                  "mode": "fixed"
                }
              }
            ]
          },
          {
            "matcher": {
              "id": "byName",
              "options": "CPU usage %"
            },
            "properties": [
              {
                "id": "color",
                "value": {
                  "fixedColor": "semi-dark-blue",
                  "mode": "fixed"
                }
              }
            ]
          }
        ]
      },
      "gridPos": {
        "h": 7,
        "w": 7,
        "x": 6,
        "y": 1
      },
      "id": 93,
      "links": [],
      "options": {
        "graph": {},
        "legend": {
          "calcs": [],
          "displayMode": "hidden",
          "placement": "bottom"
        },
        "tooltip": {
          "mode": "multi"
        }
      },
      "pluginVersion": "7.5.3",
      "targets": [
        {
          "alias": "CPU usage %",
          "groupBy": [
            {
              "params": [
                "$inter"
              ],
              "type": "time"
            },
            {
              "params": [
                "vmname"
              ],
              "type": "tag"
            },
            {
              "params": [
                "none"
              ],
              "type": "fill"
            }
          ],
          "measurement": "vsphere_vm_cpu",
          "orderByTime": "ASC",
          "policy": "default",
          "refId": "A",
          "resultFormat": "time_series",
          "select": [
            [
              {
                "params": [
                  "usage_average"
                ],
                "type": "field"
              },
              {
                "params": [],
                "type": "last"
              }
            ]
          ],
          "tags": [
            {
              "key": "vmname",
              "operator": "=~",
              "value": "/^$virtualmachine$/"
            }
          ]
        },
        {
          "alias": "CPU Ready %",
          "groupBy": [
            {
              "params": [
                "$inter"
              ],
              "type": "time"
            },
            {
              "params": [
                "vmname"
              ],
              "type": "tag"
            },
            {
              "params": [
                "none"
              ],
              "type": "fill"
            }
          ],
          "measurement": "vsphere_vm_cpu",
          "orderByTime": "ASC",
          "policy": "default",
          "refId": "B",
          "resultFormat": "time_series",
          "select": [
            [
              {
                "params": [
                  "readiness_average"
                ],
                "type": "field"
              },
              {
                "params": [],
                "type": "last"
              }
            ]
          ],
          "tags": [
            {
              "key": "vmname",
              "operator": "=~",
              "value": "/^$virtualmachine$/"
            }
          ]
        }
      ],
      "timeFrom": null,
      "timeShift": null,
      "title": "CPU Usage in %",
      "type": "timeseries"
    },
    {
      "datasource": "InfluxDB-k3s-telegraf",
      "description": "Amount of guest physical memory that is being actively read or written by guest. Activeness is estimated by ESXi.",
      "fieldConfig": {
        "defaults": {
          "color": {
            "mode": "palette-classic"
          },
          "custom": {
            "axisLabel": "RAM Usage in %",
            "axisPlacement": "auto",
            "barAlignment": 0,
            "drawStyle": "line",
            "fillOpacity": 30,
            "gradientMode": "hue",
            "hideFrom": {
              "graph": false,
              "legend": false,
              "tooltip": false,
              "viz": false
            },
            "lineInterpolation": "smooth",
            "lineWidth": 2,
            "pointSize": 5,
            "scaleDistribution": {
              "type": "linear"
            },
            "showPoints": "never",
            "spanNulls": true,
            "stacking": {
              "group": "A",
              "mode": "none"
            },
            "thresholdsStyle": {
              "mode": "off"
            }
          },
          "mappings": [],
          "max": 100,
          "thresholds": {
            "mode": "absolute",
            "steps": [
              {
                "color": "green",
                "value": null
              },
              {
                "color": "red",
                "value": 80
              }
            ]
          },
          "unit": "percent"
        },
        "overrides": [
          {
            "matcher": {
              "id": "byName",
              "options": "RAM usage %"
            },
            "properties": [
              {
                "id": "color",
                "value": {
                  "fixedColor": "dark-blue",
                  "mode": "fixed"
                }
              }
            ]
          }
        ]
      },
      "gridPos": {
        "h": 7,
        "w": 6,
        "x": 13,
        "y": 1
      },
      "id": 97,
      "links": [],
      "options": {
        "graph": {},
        "legend": {
          "calcs": [],
          "displayMode": "hidden",
          "placement": "bottom"
        },
        "tooltip": {
          "mode": "multi"
        }
      },
      "pluginVersion": "7.5.3",
      "targets": [
        {
          "alias": "RAM usage %",
          "groupBy": [
            {
              "params": [
                "$inter"
              ],
              "type": "time"
            },
            {
              "params": [
                "vmname"
              ],
              "type": "tag"
            },
            {
              "params": [
                "none"
              ],
              "type": "fill"
            }
          ],
          "measurement": "vsphere_vm_mem",
          "orderByTime": "ASC",
          "policy": "default",
          "refId": "A",
          "resultFormat": "time_series",
          "select": [
            [
              {
                "params": [
                  "usage_average"
                ],
                "type": "field"
              },
              {
                "params": [],
                "type": "last"
              }
            ]
          ],
          "tags": [
            {
              "key": "vmname",
              "operator": "=~",
              "value": "/^$virtualmachine$/"
            }
          ]
        }
      ],
      "timeFrom": null,
      "timeShift": null,
      "title": "RAM Utilization",
      "type": "timeseries"
    },
    {
      "datasource": "InfluxDB-k3s-telegraf",
      "description": "Time that the virtual machine was ready, but could not get scheduled to run on the physical CPU during last measurement interval.",
      "fieldConfig": {
        "defaults": {
          "color": {
            "mode": "palette-classic"
          },
          "custom": {
            "axisLabel": "ms",
            "axisPlacement": "auto",
            "barAlignment": 0,
            "drawStyle": "line",
            "fillOpacity": 30,
            "gradientMode": "hue",
            "hideFrom": {
              "graph": false,
              "legend": false,
              "tooltip": false,
              "viz": false
            },
            "lineInterpolation": "smooth",
            "lineWidth": 2,
            "pointSize": 5,
            "scaleDistribution": {
              "type": "linear"
            },
            "showPoints": "never",
            "spanNulls": true,
            "stacking": {
              "group": "A",
              "mode": "none"
            },
            "thresholdsStyle": {
              "mode": "off"
            }
          },
          "mappings": [],
          "max": 1000,
          "min": 0,
          "thresholds": {
            "mode": "absolute",
            "steps": [
              {
                "color": "green",
                "value": null
              },
              {
                "color": "red",
                "value": 80
              }
            ]
          },
          "unit": "none"
        },
        "overrides": []
      },
      "gridPos": {
        "h": 7,
        "w": 5,
        "x": 19,
        "y": 1
      },
      "id": 92,
      "links": [],
      "options": {
        "graph": {},
        "legend": {
          "calcs": [],
          "displayMode": "hidden",
          "placement": "bottom"
        },
        "tooltip": {
          "mode": "multi"
        }
      },
      "pluginVersion": "7.5.3",
      "targets": [
        {
          "alias": "Core $tag_cpu",
          "groupBy": [
            {
              "params": [
                "$inter"
              ],
              "type": "time"
            },
            {
              "params": [
                "vmname"
              ],
              "type": "tag"
            },
            {
              "params": [
                "cpu"
              ],
              "type": "tag"
            },
            {
              "params": [
                "none"
              ],
              "type": "fill"
            }
          ],
          "measurement": "vsphere_vm_cpu",
          "orderByTime": "ASC",
          "policy": "default",
          "refId": "B",
          "resultFormat": "time_series",
          "select": [
            [
              {
                "params": [
                  "ready_summation"
                ],
                "type": "field"
              },
              {
                "params": [],
                "type": "last"
              }
            ]
          ],
          "tags": [
            {
              "key": "vmname",
              "operator": "=~",
              "value": "/^$virtualmachine$/"
            }
          ]
        }
      ],
      "timeFrom": null,
      "timeShift": null,
      "title": "CPU Ready in miliseconds",
      "type": "timeseries"
    },
    {
      "datasource": "InfluxDB-k3s-telegraf",
      "description": "Network utilization (combined transmit-rates and receive-rates) during the interval.",
      "fieldConfig": {
        "defaults": {
          "color": {
            "mode": "palette-classic"
          },
          "custom": {
            "axisLabel": "Network Usage",
            "axisPlacement": "auto",
            "barAlignment": 0,
            "drawStyle": "line",
            "fillOpacity": 30,
            "gradientMode": "hue",
            "hideFrom": {
              "graph": false,
              "legend": false,
              "tooltip": false,
              "viz": false
            },
            "lineInterpolation": "smooth",
            "lineWidth": 2,
            "pointSize": 5,
            "scaleDistribution": {
              "type": "linear"
            },
            "showPoints": "never",
            "spanNulls": true,
            "stacking": {
              "group": "A",
              "mode": "none"
            },
            "thresholdsStyle": {
              "mode": "off"
            }
          },
          "decimals": 2,
          "mappings": [],
          "thresholds": {
            "mode": "absolute",
            "steps": [
              {
                "color": "green",
                "value": null
              },
              {
                "color": "red",
                "value": 80
              }
            ]
          },
          "unit": "KBs"
        },
        "overrides": []
      },
      "gridPos": {
        "h": 6,
        "w": 13,
        "x": 0,
        "y": 8
      },
      "id": 99,
      "links": [],
      "options": {
        "graph": {},
        "legend": {
          "calcs": [
            "last",
            "min",
            "max"
          ],
          "displayMode": "table",
          "placement": "right"
        },
        "tooltip": {
          "mode": "multi"
        }
      },
      "pluginVersion": "7.5.3",
      "targets": [
        {
          "alias": "$tag_interface bytesRx",
          "groupBy": [
            {
              "params": [
                "$inter"
              ],
              "type": "time"
            },
            {
              "params": [
                "interface"
              ],
              "type": "tag"
            },
            {
              "params": [
                "none"
              ],
              "type": "fill"
            }
          ],
          "measurement": "vsphere_vm_net",
          "orderByTime": "ASC",
          "policy": "default",
          "refId": "A",
          "resultFormat": "time_series",
          "select": [
            [
              {
                "params": [
                  "bytesRx_average"
                ],
                "type": "field"
              },
              {
                "params": [],
                "type": "last"
              }
            ]
          ],
          "tags": [
            {
              "key": "vmname",
              "operator": "=~",
              "value": "/^$virtualmachine$/"
            }
          ]
        },
        {
          "alias": "$tag_interface bytesTx",
          "groupBy": [
            {
              "params": [
                "$inter"
              ],
              "type": "time"
            },
            {
              "params": [
                "interface"
              ],
              "type": "tag"
            },
            {
              "params": [
                "none"
              ],
              "type": "fill"
            }
          ],
          "measurement": "vsphere_vm_net",
          "orderByTime": "ASC",
          "policy": "default",
          "refId": "B",
          "resultFormat": "time_series",
          "select": [
            [
              {
                "params": [
                  "bytesTx_average"
                ],
                "type": "field"
              },
              {
                "params": [],
                "type": "last"
              }
            ]
          ],
          "tags": [
            {
              "key": "vmname",
              "operator": "=~",
              "value": "/^$virtualmachine$/"
            }
          ]
        }
      ],
      "timeFrom": null,
      "timeShift": null,
      "title": "Network Usage",
      "type": "timeseries"
    },
    {
      "datasource": "InfluxDB-k3s-telegraf",
      "description": "The average time a read, or write, from the virtual disk takes.",
      "fieldConfig": {
        "defaults": {
          "color": {
            "mode": "palette-classic"
          },
          "custom": {
            "axisLabel": "ms",
            "axisPlacement": "auto",
            "barAlignment": 0,
            "drawStyle": "line",
            "fillOpacity": 30,
            "gradientMode": "hue",
            "hideFrom": {
              "graph": false,
              "legend": false,
              "tooltip": false,
              "viz": false
            },
            "lineInterpolation": "smooth",
            "lineWidth": 2,
            "pointSize": 5,
            "scaleDistribution": {
              "type": "linear"
            },
            "showPoints": "never",
            "spanNulls": true,
            "stacking": {
              "group": "A",
              "mode": "none"
            },
            "thresholdsStyle": {
              "mode": "off"
            }
          },
          "mappings": [],
          "thresholds": {
            "mode": "absolute",
            "steps": [
              {
                "color": "green",
                "value": null
              },
              {
                "color": "red",
                "value": 80
              }
            ]
          },
          "unit": "ms"
        },
        "overrides": []
      },
      "gridPos": {
        "h": 6,
        "w": 6,
        "x": 13,
        "y": 8
      },
      "id": 98,
      "links": [],
      "options": {
        "graph": {},
        "legend": {
          "calcs": [],
          "displayMode": "hidden",
          "placement": "bottom"
        },
        "tooltip": {
          "mode": "single"
        }
      },
      "pluginVersion": "7.5.3",
      "targets": [
        {
          "alias": "Write - $tag_disk",
          "groupBy": [
            {
              "params": [
                "$inter"
              ],
              "type": "time"
            },
            {
              "params": [
                "disk"
              ],
              "type": "tag"
            },
            {
              "params": [
                "none"
              ],
              "type": "fill"
            }
          ],
          "measurement": "vsphere_vm_virtualDisk",
          "orderByTime": "ASC",
          "policy": "default",
          "refId": "A",
          "resultFormat": "time_series",
          "select": [
            [
              {
                "params": [
                  "totalWriteLatency_average"
                ],
                "type": "field"
              },
              {
                "params": [],
                "type": "last"
              }
            ]
          ],
          "tags": [
            {
              "key": "vmname",
              "operator": "=~",
              "value": "/^$virtualmachine$/"
            }
          ]
        },
        {
          "alias": "Read - $tag_disk",
          "groupBy": [
            {
              "params": [
                "$inter"
              ],
              "type": "time"
            },
            {
              "params": [
                "disk"
              ],
              "type": "tag"
            },
            {
              "params": [
                "none"
              ],
              "type": "fill"
            }
          ],
          "measurement": "vsphere_vm_virtualDisk",
          "orderByTime": "ASC",
          "policy": "default",
          "refId": "B",
          "resultFormat": "time_series",
          "select": [
            [
              {
                "params": [
                  "totalReadLatency_average"
                ],
                "type": "field"
              },
              {
                "params": [],
                "type": "last"
              }
            ]
          ],
          "tags": [
            {
              "key": "vmname",
              "operator": "=~",
              "value": "/^$virtualmachine$/"
            }
          ]
        }
      ],
      "timeFrom": null,
      "timeShift": null,
      "title": "Total Disk Latency",
      "type": "timeseries"
    },
    {
      "datasource": "InfluxDB-k3s-telegraf",
      "description": "The average time a read, or write, from the datastore takes.",
      "fieldConfig": {
        "defaults": {
          "color": {
            "mode": "palette-classic"
          },
          "custom": {
            "axisLabel": "ms",
            "axisPlacement": "auto",
            "barAlignment": 0,
            "drawStyle": "line",
            "fillOpacity": 30,
            "gradientMode": "hue",
            "hideFrom": {
              "graph": false,
              "legend": false,
              "tooltip": false,
              "viz": false
            },
            "lineInterpolation": "smooth",
            "lineWidth": 2,
            "pointSize": 5,
            "scaleDistribution": {
              "type": "linear"
            },
            "showPoints": "never",
            "spanNulls": true,
            "stacking": {
              "group": "A",
              "mode": "none"
            },
            "thresholdsStyle": {
              "mode": "off"
            }
          },
          "mappings": [],
          "thresholds": {
            "mode": "absolute",
            "steps": [
              {
                "color": "green",
                "value": null
              },
              {
                "color": "red",
                "value": 80
              }
            ]
          },
          "unit": "ms"
        },
        "overrides": []
      },
      "gridPos": {
        "h": 6,
        "w": 5,
        "x": 19,
        "y": 8
      },
      "id": 100,
      "links": [],
      "options": {
        "graph": {},
        "legend": {
          "calcs": [],
          "displayMode": "hidden",
          "placement": "bottom"
        },
        "tooltip": {
          "mode": "multi"
        }
      },
      "pluginVersion": "7.5.3",
      "targets": [
        {
          "alias": "ReadAverage $tag_disk",
          "groupBy": [
            {
              "params": [
                "$inter"
              ],
              "type": "time"
            },
            {
              "params": [
                "disk"
              ],
              "type": "tag"
            },
            {
              "params": [
                "none"
              ],
              "type": "fill"
            }
          ],
          "measurement": "vsphere_vm_virtualDisk",
          "orderByTime": "ASC",
          "policy": "default",
          "refId": "A",
          "resultFormat": "time_series",
          "select": [
            [
              {
                "params": [
                  "totalReadLatency_average"
                ],
                "type": "field"
              },
              {
                "params": [],
                "type": "last"
              }
            ]
          ],
          "tags": [
            {
              "key": "vmname",
              "operator": "=~",
              "value": "/^$virtualmachine$/"
            }
          ]
        },
        {
          "alias": "WriteAverage $tag_disk",
          "groupBy": [
            {
              "params": [
                "$inter"
              ],
              "type": "time"
            },
            {
              "params": [
                "disk"
              ],
              "type": "tag"
            },
            {
              "params": [
                "none"
              ],
              "type": "fill"
            }
          ],
          "measurement": "vsphere_vm_virtualDisk",
          "orderByTime": "ASC",
          "policy": "default",
          "refId": "B",
          "resultFormat": "time_series",
          "select": [
            [
              {
                "params": [
                  "totalWriteLatency_average"
                ],
                "type": "field"
              },
              {
                "params": [],
                "type": "last"
              }
            ]
          ],
          "tags": [
            {
              "key": "vmname",
              "operator": "=~",
              "value": "/^$virtualmachine$/"
            }
          ]
        }
      ],
      "timeFrom": null,
      "timeShift": null,
      "title": "Storage Adapter Latency",
      "type": "timeseries"
    },
    {
      "collapsed": false,
      "datasource": null,
      "fieldConfig": {
        "defaults": {},
        "overrides": []
      },
      "gridPos": {
        "h": 1,
        "w": 24,
        "x": 0,
        "y": 84
      },
      "id": 104,
      "panels": [],
      "title": "Contact me:",
      "type": "row"
    },
    {
      "datasource": null,
      "gridPos": {
        "h": 3,
        "w": 5,
        "x": 19,
        "y": 85
      },
      "id": 102,
      "options": {
        "content": "<a href=\"https://www.jorgedelacruz.es\"><img src=\"https://www.jorgedelacruz.es/wp-content/uploads/2019/04/jorgedelacruz-banner_2efede4ef704c939e63a3763231f5961.png\"></a>",
        "mode": "html"
      },
      "pluginVersion": "8.0.3",
      "targets": [
        {
          "groupBy": [
            {
              "params": [
                "$__interval"
              ],
              "type": "time"
            },
            {
              "params": [
                "null"
              ],
              "type": "fill"
            }
          ],
          "orderByTime": "ASC",
          "policy": "default",
          "refId": "A",
          "resultFormat": "time_series",
          "select": [
            [
              {
                "params": [
                  "value"
                ],
                "type": "field"
              },
              {
                "params": [],
                "type": "mean"
              }
            ]
          ],
          "tags": []
        }
      ],
      "timeFrom": null,
      "timeShift": null,
      "transparent": true,
      "type": "text"
    }
  ],
  "refresh": "10s",
  "schemaVersion": 30,
  "style": "dark",
  "tags": [
    "VMware",
    "vSphere VM",
    "vSphere Telegraf"
  ],
  "templating": {
    "list": [
      {
        "auto": true,
        "auto_count": 100,
        "auto_min": "20s",
        "current": {
          "selected": false,
          "text": "auto",
          "value": "$__auto_interval_inter"
        },
        "description": null,
        "error": null,
        "hide": 0,
        "label": "Sampling",
        "name": "inter",
        "options": [
          {
            "selected": true,
            "text": "auto",
            "value": "$__auto_interval_inter"
          },
          {
            "selected": false,
            "text": "20s",
            "value": "20s"
          },
          {
            "selected": false,
            "text": "1m",
            "value": "1m"
          },
          {
            "selected": false,
            "text": "10m",
            "value": "10m"
          },
          {
            "selected": false,
            "text": "30m",
            "value": "30m"
          },
          {
            "selected": false,
            "text": "1h",
            "value": "1h"
          },
          {
            "selected": false,
            "text": "6h",
            "value": "6h"
          },
          {
            "selected": false,
            "text": "12h",
            "value": "12h"
          },
          {
            "selected": false,
            "text": "1d",
            "value": "1d"
          },
          {
            "selected": false,
            "text": "7d",
            "value": "7d"
          },
          {
            "selected": false,
            "text": "14d",
            "value": "14d"
          },
          {
            "selected": false,
            "text": "30d",
            "value": "30d"
          }
        ],
        "query": "20s,1m,10m,30m,1h,6h,12h,1d,7d,14d,30d",
        "queryValue": "",
        "refresh": 2,
        "skipUrlSync": false,
        "type": "interval"
      },
      {
        "allValue": null,
        "current": {
          "selected": false,
          "text": "All",
          "value": "$__all"
        },
        "datasource": "InfluxDB-k3s-telegraf",
        "definition": "",
        "description": null,
        "error": null,
        "hide": 0,
        "includeAll": true,
        "label": "vCenter Server",
        "multi": true,
        "name": "vcenter",
        "options": [],
        "query": "select DISTINCT(\"vcenter\") from (select \"usage_average\",\"vcenter\" from \"vsphere_host_cpu\" WHERE $timeFilter)",
        "refresh": 2,
        "regex": "",
        "skipUrlSync": false,
        "sort": 0,
        "tagValuesQuery": "",
        "tagsQuery": "",
        "type": "query",
        "useTags": false
      },
      {
        "allValue": null,
        "current": {
          "selected": false,
          "text": "All",
          "value": "$__all"
        },
        "datasource": "InfluxDB-k3s-telegraf",
        "definition": "",
        "description": null,
        "error": null,
        "hide": 0,
        "includeAll": true,
        "label": "Cluster",
        "multi": true,
        "name": "clustername",
        "options": [],
        "query": "select DISTINCT(\"clustername\") from (select \"usage_average\",\"clustername\" from \"vsphere_host_cpu\" WHERE $timeFilter AND \"vcenter\" =~ /$vcenter/)",
        "refresh": 2,
        "regex": "",
        "skipUrlSync": false,
        "sort": 0,
        "tagValuesQuery": "",
        "tagsQuery": "",
        "type": "query",
        "useTags": false
      },
      {
        "allValue": null,
        "current": {
          "selected": false,
          "text": "All",
          "value": "$__all"
        },
        "datasource": "InfluxDB-k3s-telegraf",
        "definition": "",
        "description": null,
        "error": null,
        "hide": 0,
        "includeAll": true,
        "label": "ESXi Server",
        "multi": true,
        "name": "esxi",
        "options": [],
        "query": "select DISTINCT(\"esxhostname\") from (select \"usage_average\",\"esxhostname\" from \"vsphere_host_cpu\" WHERE $timeFilter AND \"vcenter\" =~ /$vcenter/)",
        "refresh": 2,
        "regex": "",
        "skipUrlSync": false,
        "sort": 0,
        "tagValuesQuery": "",
        "tagsQuery": "",
        "type": "query",
        "useTags": false
      },
      {
        "allValue": null,
        "current": {
          "selected": false,
          "text": "All",
          "value": "$__all"
        },
        "datasource": "InfluxDB-k3s-telegraf",
        "definition": "",
        "description": null,
        "error": null,
        "hide": 0,
        "includeAll": true,
        "label": "Datastore",
        "multi": true,
        "name": "datastore",
        "options": [],
        "query": "select DISTINCT(\"dsname\") from (select \"used_latest\",\"dsname\" from \"vsphere_datastore_disk\" WHERE $timeFilter AND \"vcenter\" =~ /$vcenter/)",
        "refresh": 2,
        "regex": "",
        "skipUrlSync": false,
        "sort": 0,
        "tagValuesQuery": "",
        "tagsQuery": "",
        "type": "query",
        "useTags": false
      },
      {
        "allValue": "",
        "current": {
          "selected": false,
          "text": "All",
          "value": "$__all"
        },
        "datasource": "InfluxDB-k3s-telegraf",
        "definition": "",
        "description": null,
        "error": null,
        "hide": 0,
        "includeAll": true,
        "label": "VM",
        "multi": true,
        "name": "virtualmachine",
        "options": [],
        "query": "select DISTINCT(\"vmname\") from (select \"ready_summation\",\"vmname\" from \"vsphere_vm_cpu\" WHERE $timeFilter AND \"vcenter\" =~ /$vcenter/)",
        "refresh": 2,
        "regex": "/^(?![a-zA-Z0-9-_]+_)/",
        "skipUrlSync": false,
        "sort": 5,
        "type": "query"
      }
    ]
  },
  "time": {
    "from": "now-6h",
    "to": "now"
  },
  "timepicker": {
    "refresh_intervals": [
      "10s",
      "30s",
      "1m",
      "5m",
      "15m",
      "30m",
      "1h",
      "2h",
      "1d"
    ],
    "time_options": [
      "5m",
      "15m",
      "1h",
      "6h",
      "12h",
      "24h",
      "2d",
      "7d",
      "30d"
    ]
  },
  "timezone": "browser",
  "title": "VMware vSphere  - VMs",
  "uid": "HGzn7_k7k",
  "version": 1
}
